…
```
# A tibble: 3 x 6
  locationID areaManager      addressUrl            telephone     lat   lon
  <chr>      <chr>            <chr>                 <chr>       <dbl> <dbl>
1 00007      MAGEE, JAMES     pa-linwood-1439-mark… 484-451-51…  39.8 -75.4
2 00008      CASEY, CHRISTOP… pa-broomall-2050-spr… 610-356-97…  40.0 -75.4
3 00009      CONLAN, SAMANTHA pa-primos-502-south-… 610-623-11…  39.9 -75.3
```

## Sheetz


```
# A tibble: 277 x 7
   storeNumber address        city        state zip      latitude longitude
   <chr>       <chr>          <chr>       <chr> <chr>       <dbl>     <dbl>
 1 00003       1100 BLAIR ST  HOLLIDAYSB… PA    1664824…     40.4     -78.4
 2 00007       5706 6TH AVE   ALTOONA     PA    1660211…     40.5     -78.4
 3 00010       1330 MOORE ST  HUNTINGDON  PA    1665219…     40.5     -78.0
 4 00011       700 CHESTNUT … ALTOONA     PA    16601        40.5     -78.4
 5 00014       3315 BEALE AVE ALTOONA     PA    1660117…     40.5     -78.4
 6 00015       1400 LOGAN AVE TYRONE      PA    1668616…     40.7     -78.2
 7 00019       768 WAYNE AVE  INDIANA     PA    1570130…     40.6     -79.2
 8 00021       490 CENTRAL A… JOHNSTOWN   PA    1590226…     40.3     -78.9
 9 00022       208 HAYNES ST  JOHNSTOWN   PA    1590125…     40.3     -78.9
10 00023       11 W MAIN ST   EVERETT     PA    1553711…     40.0     -78.4
# … with 267 more rows
```
…
